multiplexer/mux161.vcd
$date
	Tue Sep 24 12:27:08 2024
$end
$version
	Icarus Verilog
$end
$timescale
	1s
$end
$scope module mux161_tb $end
$var wire 1 ! y $end
$var reg 16 " i [15:0] $end
$var reg 4 # s [3:0] $end
$scope module m1 $end
$var wire 16 $ i [15:0] $end
$var wire 4 % s [3:0] $end
$var wire 1 & y4 $end
$var wire 1 ' y3 $end
$var wire 1 ( y2 $end
$var wire 1 ) y1 $end
$var wire 1 ! y $end
$scope module m1 $end
$var wire 1 * i0 $end
$var wire 1 + i1 $end
$var wire 1 , i2 $end
$var wire 1 - i3 $end
$var wire 1 . s0 $end
$var wire 1 / s1 $end
$var wire 1 ) y $end
$upscope $end
$scope module m2 $end
$var wire 1 0 i0 $end
$var wire 1 1 i1 $end
$var wire 1 2 i2 $end
$var wire 1 3 i3 $end
$var wire 1 4 s0 $end
$var wire 1 5 s1 $end
$var wire 1 ( y $end
$upscope $end
$scope module m3 $end
$var wire 1 6 i0 $end
$var wire 1 7 i1 $end
$var wire 1 8 i2 $end
$var wire 1 9 i3 $end
$var wire 1 : s0 $end
$var wire 1 ; s1 $end
$var wire 1 ' y $end
$upscope $end
$scope module m4 $end
$var wire 1 < i0 $end
$var wire 1 = i1 $end
$var wire 1 > i2 $end
$var wire 1 ? i3 $end
$var wire 1 @ s0 $end
$var wire 1 A s1 $end
$var wire 1 & y $end
$upscope $end
$scope module m5 $end
$var wire 1 ) i0 $end
$var wire 1 ( i1 $end
$var wire 1 ' i2 $end
$var wire 1 & i3 $end
$var wire 1 B s0 $end
$var wire 1 C s1 $end
$var wire 1 ! y $end
$upscope $end
$upscope $end
$upscope $end
$enddefinitions $end
$comment Show the parameter values. $end
$dumpall
$end
#0
$dumpvars
0C
0B
0A
0@
0?
0>
0=
0<
0;
0:
09
08
07
06
05
04
03
02
01
00
0/
0.
0-
0,
0+
1*
1)
0(
0'
0&
b0 %
b1 $
b0 #
b1 "
1!
$end
#10
1!
1)
1.
14
1:
1@
0*
1+
b1 #
b1 %
b10 "
b10 $
#20
1!
1)
0.
1/
04
15
0:
1;
0@
1A
0+
1,
b10 #
b10 %
b100 "
b100 $
#30
1.
14
1:
1@
0,
1-
b11 #
b11 %
b1000 "
b1000 $
#40
1(
1!
0)
0.
0/
04
05
0:
0;
0@
0A
1B
0-
10
b100 #
b100 %
b10000 "
b10000 $
#50
1!
1(
1.
14
1:
1@
00
11
b101 #
b101 %
b100000 "
b100000 $
#60
1!
1(
0.
1/
04
15
0:
1;
0@
1A
01
12
b110 #
b110 %
b1000000 "
b1000000 $
#70
1.
14
1:
1@
02
13
b111 #
b111 %
b10000000 "
b10000000 $
#80
1'
1!
0(
0.
0/
04
05
0:
0;
0@
0A
0B
1C
03
16
b1000 #
b1000 %
b100000000 "
b100000000 $
#90
1!
1'
1.
14
1:
1@
06
17
b1001 #
b1001 %
b1000000000 "
b1000000000 $
#100
1!
1'
0.
1/
04
15
0:
1;
0@
1A
07
18
b1010 #
b1010 %
b10000000000 "
b10000000000 $
#110
1.
14
1:
1@
08
19
b1011 #
b1011 %
b100000000000 "
b100000000000 $
#120
1&
1!
0'
0.
0/
04
05
0:
0;
0@
0A
1B
09
1<
b1100 #
b1100 %
b1000000000000 "
b1000000000000 $
#130
1!
1&
1.
14
1:
1@
0<
1=
b1101 #
b1101 %
b10000000000000 "
b10000000000000 $
#140
1!
1&
0.
1/
04
15
0:
1;
0@
1A
0=
1>
b1110 #
b1110 %
b100000000000000 "
b100000000000000 $
#150
1.
14
1:
1@
0>
1?
b1111 #
b1111 %
b1000000000000000 "
b1000000000000000 $
